^E:\RESITS\PRAC 1\O3D_1-12_BULL_3_PLAYER\BUILD\CMAKEFILES\92E063BB5AFAAB0B9C99CED17A5472CF\INSTALL_FORCE.RULE
setlocalcd .if %errorlevel% neq 0 goto :cmEnd:cmEndendlocal & call :cmErrorLevel %errorlevel% & goto :cmDone:cmErrorLevelexit /b %1:cmDoneif %errorlevel% neq 0 goto :VCEnd
^E:\RESITS\PRAC 1\PRAC1\BUILD\CMAKEFILES\50D2FF1D14444404DEFB8755E7D4BE28\INSTALL_FORCE.RULE
setlocalcd .if %errorlevel% neq 0 goto :cmEnd:cmEndendlocal & call :cmErrorLevel %errorlevel% & goto :cmDone:cmErrorLevelexit /b %1:cmDoneif %errorlevel% neq 0 goto :VCEnd
